{
    "editor": [
        {
            "icon": "",
            "key": "settings",
            "header": "Settings",
            "disabled": false,
            "fields": [
                {
                    "key": "success_header",
                    "header": "success_header",
                    "type": "text"
                },
                {
                    "key": "success_text",
                    "header": "success_text",
                    "type": "text"
                },
                {
                    "key": "success_buttonText",
                    "header": "success_buttonText",
                    "type": "text"
                },
                {
                    "key": "success_image",
                    "header": "success_image",
                    "type": "image"
                },
                {
                    "key": "image",
                    "header": "Image",
                    "type": "image"
                },
                {
                    "key": "bg_image",
                    "header": "bg_image",
                    "type": "image"
                },
                {
                    "key": "title",
                    "header": "title",
                    "type": "text"
                },
                {
                    "key": "headline",
                    "header": "Header",
                    "type": "text"
                },
                {
                    "key": "headline",
                    "header": "Header",
                    "type": "text"
                },
                {
                    "key": "enough_funds",
                    "header": "enough_funds",
                    "type": "text"
                },
                {
                    "key": "price",
                    "header": "price",
                    "type": "text"
                }
            ]
        }
    ],
    "config": {
        "settings": {
            "success_header": "ETH tip has been sent",
            "success_text": "Thank you for supporting my Free Online Tutorial Classes",
            "success_buttonText": "TIP AGAIN",
            "success_image": "./../assets/success.png",
            "image": "https://frontend.apps.playcent.com/882fd6ef34794b8da200696c080503c3/assets/bitcoin-1594870913.jpg",
            "bg_image": "./../assets/bg2.png",
            "title": "CORONA RELIEF FUND",
            "headline": "Tip Jar for Free Online Tutorial Classes",
            "Mob_headline": "Tip Jar for Free Online Tutorial Classes",
            "enough_funds": "Not enough funds in your account to process tip",
            "price": ""
        }
    }
}
